{
  "parser": {
    "descriptor_path": "manager/manager_persistence/descriptor_catalogue/",
    "core_file_name": "core_control_descriptor.json"
  },
  "db_handler": {
    "db_name": "catalogue_db",
    "db_path": "manager/manager_persistence/"
  },
  "slice_config_generator": {
    "base_deployment_model": "../models/deployment_template.yaml",
    "base_service_model": "../models/service_template.yaml",
    "base_slice_view_model": "../models/slice_view_template.json",
    "yaml_save_path": "manager/manager_persistence/configuration_repo/kubernetes/",
    "json_save_path": "manager/manager_persistence/configuration_repo/slice_view/",
    "sso_slice_path": "manager/manager_persistence/configuration_repo/sso/",
    "image_pull_secrets": "ote-regcred"
  },
  "cpsr": {
    "cpsrIP": "10.255.255.24",
    "cpsrPort": "8080"
  },
  "deployment_node": {
    "ip": "10.0.8.28"
  },
  "core_endpoints": {
    "cpsr": "/plug-and-play-test/pp_management/registration/cpsr-info/",
    "slice_view": "/plug-and-play-test/pp_management/registration/slice/"
  },
  "faas_api": {
    "faasIP": "10.0.8.28:80",
    "faasPort": "80",
    "user": "23bc46b1-71f6-4ed5-8c54-816aa4f8c502",
    "password": "123zO3xZCLrMN6v2BKK1dXYFpXlPkccOFqm12CdAsMgRU4VrNZ9lyGVCGuMDGIwP",
    "namespace": "guest",
    "brokers":["kp-kafka-headless:9092"],
    "base_url": "/api/v1/namespaces/",
    "trigger_reg_url": "whisk.system/actions/messaging/kafkaFeed?blocking=true&result=false",
    "base_package_model": "../models/faas_package_template.json",
    "base_action_model": "../models/faas_action_template.json",
    "base_trigger_model": "../models/faas_trigger_template.json",
    "base_trigger_reg_model": "../models/faas_trigger_register.json",
    "base_rule_model": "../models/faas_rule_template.json",
    "code_file_path": "manager/manager_persistence/configuration_repo/faas/"
  }
}